synthesis/exp3/03_outputs/ff_hvt_1v0/dff_wave.vcd
$date
    Nov 20, 2025  15:17:17
$end
$version
    TOOL:	xmsim(64)	24.09-s005
$end
$timescale
    1 ps
$end

$scope module tb_dff $end

$scope module DUT $end
$var wire      1 !    clk  $end
$var wire      1 "    d  $end
$var wire      1 #    q  $end

$scope module q_reg $end
$var wire      1 #    Q  $end
$var wire      1 "    D  $end
$var wire      1 !    CK  $end
$var reg       1 $    notifier $end
$var wire      1 "    delayed_D  $end
$var wire      1 !    delayed_CK  $end
$var wire      1 %    int_fwire_N30  $end
$var wire      1 &    xcr_0  $end
$upscope $end

$upscope $end

$upscope $end

$enddefinitions $end
$dumpvars
0!
1"
x#
x$
x%
x&
$end
#500
1!
1%
#551
1#
#1000
0!
#1500
1!
#2000
0!
#2500
1!
#3000
0!
#3500
1!
#4000
0!
#4200
0"
#4500
1!
0%
#4558
0#
#5000
0!
#5500
1!
#6000
0!
#6500
1!
#7000
0!
#7200
1"
#7500
1!
1%
#7551
1#
#8000
0!
#8500
1!
#9000
0!
#9500
1!
#10000
0!
#10484
0"
#10500
1!
0%
0$
x%
#10558
x#
#11000
0!
#11500
1!
0%
#11558
0#
#12000
0!
#12500
1!
#13000
0!
#13478
1"
#13500
1!
1%
1$
x%
#13551
x#
#14000
0!
#14500
1!
1%
#14551
1#
#15000
0!
#15500
1!
#16000
0!
#16481
0"
#16500
1!
0%
#16558
0#
#17000
0!
#17500
1!
#18000
0!
#18500
1!
#19000
0!
#19475
1"
#19500
1!
1%
#19551
1#
