synthesis/exp3/03_outputs/ss_hvt_1v0/dff_wave.vcd
$date
    Nov 21, 2025  00:06:51
$end
$version
    TOOL:	xmsim(64)	24.09-s005
$end
$timescale
    1 ps
$end

$scope module tb_dff $end

$scope module DUT $end
$var wire      1 !    clk  $end
$var wire      1 "    d  $end
$var wire      1 #    q  $end

$scope module q_reg $end
$var wire      1 #    Q  $end
$var wire      1 "    D  $end
$var wire      1 !    CK  $end
$var reg       1 $    notifier $end
$var wire      1 "    delayed_D  $end
$var wire      1 !    delayed_CK  $end
$var wire      1 %    int_fwire_N30  $end
$var wire      1 &    xcr_0  $end
$upscope $end

$upscope $end

$upscope $end

$enddefinitions $end
$dumpvars
0!
0"
x#
x$
x%
x&
$end
#500
1!
0%
#792
0#
#1000
0!
#1500
1!
#2000
0!
#2500
1!
#3000
0!
#3500
1!
#4000
0!
#4200
1"
#4500
1!
1%
#4743
1#
#5000
0!
#5500
1!
#6000
0!
#6500
1!
#7000
0!
#7200
0"
#7500
1!
0%
#7792
0#
#8000
0!
#8500
1!
#9000
0!
#9500
1!
#10000
0!
#10326
1"
#10500
1!
1%
0$
x%
#10743
x#
#11000
0!
#11500
1!
1%
#11743
1#
#12000
0!
#12500
1!
#13000
0!
#13445
0"
#13500
1!
0%
1$
x%
#13792
x#
#14000
0!
#14500
1!
0%
#14792
0#
#15000
0!
#15500
1!
#16000
0!
#16200
1"
#16500
1!
1%
#16503
0"
0$
x%
#16743
x#
#17000
0!
#17500
1!
0%
#17792
0#
#18000
0!
#18500
1!
#19000
0!
#19500
1!
#20000
0!
#20323
1"
#20500
1!
1%
#20743
1#
#21000
0!
#21500
1!
#22000
0!
#22500
1!
#23000
0!
#23442
0"
#23500
1!
0%
#23792
0#
