synthesis/exp3/03_outputs/ss_lvt_1v0/dff_wave.vcd
$date
    Nov 21, 2025  00:40:54
$end
$version
    TOOL:	xmsim(64)	24.09-s005
$end
$timescale
    1 ps
$end

$scope module tb_dff $end

$scope module DUT $end
$var wire      1 !    clk  $end
$var wire      1 "    d  $end
$var wire      1 #    q  $end

$scope module q_reg $end
$var wire      1 #    Q  $end
$var wire      1 "    D  $end
$var wire      1 !    CK  $end
$var reg       1 $    notifier $end
$var wire      1 "    delayed_D  $end
$var wire      1 !    delayed_CK  $end
$var wire      1 %    int_fwire_N30  $end
$var wire      1 &    xcr_0  $end
$upscope $end

$upscope $end

$upscope $end

$enddefinitions $end
$dumpvars
0!
0"
x#
x$
x%
x&
$end
#500
1!
0%
#621
0#
#1000
0!
#1500
1!
#2000
0!
#2500
1!
#3000
0!
#3500
1!
#4000
0!
#4200
1"
#4500
1!
1%
#4606
1#
#5000
0!
#5500
1!
#6000
0!
#6500
1!
#7000
0!
#7200
0"
#7500
1!
0%
#7621
0#
#8000
0!
#8500
1!
#9000
0!
#9500
1!
#10000
0!
#10442
1"
#10500
1!
1%
0$
x%
#10606
x#
#11000
0!
#11500
1!
1%
#11606
1#
#12000
0!
#12500
1!
#13000
0!
#13474
0"
#13500
1!
0%
1$
x%
#13621
x#
#14000
0!
#14500
1!
0%
#14621
0#
#15000
0!
#15500
1!
#16000
0!
#16200
1"
#16500
1!
1%
#16503
0"
0$
x%
#16606
x#
#17000
0!
#17500
1!
0%
#17621
0#
#18000
0!
#18500
1!
#19000
0!
#19500
1!
#20000
0!
#20439
1"
#20500
1!
1%
#20606
1#
#21000
0!
#21500
1!
#22000
0!
#22500
1!
#23000
0!
#23471
0"
#23500
1!
0%
#23621
0#
